{
    "name": "Global Information",
    "numberOfRequests": {
        "total": 500,
        "ok": 483,
        "ko": 17
    },
    "minResponseTime": {
        "total": 88,
        "ok": 220,
        "ko": 88
    },
    "maxResponseTime": {
        "total": 601,
        "ok": 601,
        "ko": 257
    },
    "meanResponseTime": {
        "total": 414,
        "ok": 421,
        "ko": 219
    },
    "standardDeviation": {
        "total": 110,
        "ok": 105,
        "ko": 50
    },
    "percentiles1": {
        "total": 409,
        "ok": 421,
        "ko": 243
    },
    "percentiles2": {
        "total": 514,
        "ok": 517,
        "ko": 249
    },
    "percentiles3": {
        "total": 579,
        "ok": 580,
        "ko": 252
    },
    "percentiles4": {
        "total": 595,
        "ok": 595,
        "ko": 256
    },
    "group1": {
        "name": "t < 800 ms",
        "count": 483,
        "percentage": 97
    },
    "group2": {
        "name": "800 ms < t < 1200 ms",
        "count": 0,
        "percentage": 0
    },
    "group3": {
        "name": "t > 1200 ms",
        "count": 0,
        "percentage": 0
    },
    "group4": {
        "name": "failed",
        "count": 17,
        "percentage": 3
    },
    "meanNumberOfRequestsPerSecond": {
        "total": 500.0,
        "ok": 483.0,
        "ko": 17.0
    }
}